…
    ## [1] 0

``` r
rm(x, i, res.capa, res)

# Low variance in mean scores happens in all teams in which I get error messages:
df %>%
  group_by(team) %>%
  dplyr::summarise(mad = mad(mean.pas)) %>%
  arrange(mad)
```

    ## # A tibble: 155 × 2
    ##     team   mad
    ##    <dbl> <dbl>
    ##  1  1024     0
    ##  2  1025     0
    ##  3  1027     0
    ##  4  1028     0
    ##  5  1030     0
    ##  6  1031     0
    ##  7  1032     0
    ##  8  1033     0
    ##  9  1034     0
    ## 10  1036     0
    ## # … with 145 more rows
…
